﻿<?xml version="1.0" encoding="UTF-8"?>
<!DOCTYPE svg PUBLIC "-//W3C//DTD SVG 1.1//EN" "http://www.w3.org/Graphics/SVG/1.1/DTD/svg11.dtd">
<!-- Creator: CorelDRAW X7 -->
<svg xmlns="http://www.w3.org/2000/svg" xml:space="preserve" width="140mm" height="140mm" version="1.1" style="shape-rendering:geometricPrecision; text-rendering:geometricPrecision; image-rendering:optimizeQuality; fill-rule:evenodd; clip-rule:evenodd"
viewBox="0 0 14000 14000"
 xmlns:xlink="http://www.w3.org/1999/xlink">
 <defs>
  <style type="text/css">
   <![CDATA[
    .fil0 {fill:black}
   ]]>
  </style>
 </defs>
 <g id="Слой_x0020_1">
  <metadata id="CorelCorpID_0Corel-Layer"/>
  <path class="fil0" d="M8364 8955c248,0 285,-106 531,-352 405,-405 510,-420 303,-538 -167,-96 -821,-521 -947,-521 -178,0 -322,377 -527,377 -221,0 -661,-319 -814,-466l-394 -395c-37,-41 -77,-95 -109,-136 -116,-152 -229,-302 -294,-496 -54,-159 -48,-244 63,-356 320,-325 298,-215 125,-566l-365 -689c-29,-51 -63,-87 -93,-132 -112,59 -421,392 -532,503 -73,73 -213,180 -247,279 -121,346 223,1095 410,1374 314,466 409,582 835,1009 480,481 1377,1105 2055,1105z"/>
 </g>
</svg>
